Data/0~2.06151~V3P3.csv

"Record Length",50000,"Points",-0.000791999995,  0.01750004
"Sample Interval",7.99999995e-008,s,-0.000791919995,  0.01515629
"Trigger Point",9900,"Samples",-0.000791839995,  0.02234379
"Trigger Time",4.72870592e-008,s,-0.000791759995,  0.02390629
"V3P3",,,-0.000791679995,  0.02078129
"Horizontial Offset",-0.000791999995,s,-0.000791599995,  0.02031254
,,,-0.000791519995,  0.01390629
,,,-0.000791439995,  0.02437504
,,,-0.000791359995,  0.01515629
,,,-0.000791279995,  0.01546879
,,,-0.000791199995,  0.01906254
,,,-0.000791119995,  0.01671879
,,,-0.000791039995,  0.01953129
,,,-0.000790959995,  0.01640629
,,,-0.000790879995,  0.01546879
,,,-0.000790799995,  0.01875004
,,,-0.000790719995,  0.02515629
,,,-0.000790639995,  0.01875004
,,,-0.000790559995,  0.01906254
,,,-0.000790479995,  0.01828129
,,,-0.000790399995,  0.02156254
,,,-0.000790319995,  0.02109379
,,,-0.000790239995,  0.02109379
,,,-0.000790159995,  0.02546879
,,,-0.000790079995,  0.02187504
,,,-0.000789999995,  0.01796879
,,,-0.000789919995,  0.01953129
,,,-0.000789839995,  0.02078129
,,,-0.000789759995,  0.01468754
,,,-0.000789679995,  0.01640629
,,,-0.000789599995,  0.01953129
,,,-0.000789519995,  0.02468754
,,,-0.000789439995,  0.01187504
,,,-0.000789359995,  0.02109379
,,,-0.000789279995,  0.01468754
,,,-0.000789199995,  0.01156254
,,,-0.000789119995,  0.01671879
,,,-0.000789039995,  0.01718754
,,,-0.000788959995,  0.02031254
,,,-0.000788879995,  0.01640629
,,,-0.000788799995,  0.02031254
,,,-0.000788719995,  0.02109379
,,,-0.000788639995,  0.01671879
,,,-0.000788559995,  0.02437504
,,,-0.000788479995,  0.02156254
,,,-0.000788399995,  0.01750004
,,,-0.000788319995,  0.01875004
,,,-0.000788239995,  0.01953129
,,,-0.000788159995,  0.02234379
,,,-0.000788079995,  0.02156254
,,,-0.000787999995,  0.02031254
,,,-0.000787919995,  0.01750004
,,,-0.000787839995,  0.02640629
,,,-0.000787759995,  0.02031254
,,,-0.000787679995,  0.02390629
,,,-0.000787599995,  0.01750004
,,,-0.000787519995,  0.02109379
,,,-0.000787439995,  0.01671879
,,,-0.000787359995,  0.01875004
,,,-0.000787279995,  0.01828129
,,,-0.000787199995,  0.01906254
,,,-0.000787119995,  0.01593754
,,,-0.000787039995,  0.01671879
,,,-0.000786959995,  0.01828129
,,,-0.000786879995,  0.01875004
,,,-0.000786799995,  0.01546879
,,,-0.000786719995,  0.01671879
,,,-0.000786639995,  0.01750004
,,,-0.000786559995,  0.02031254
,,,-0.000786479995,  0.01265629
,,,-0.000786399995,  0.01234379
,,,-0.000786319995,  0.01796879
,,,-0.000786239995,  0.01234379
,,,-0.000786159995,  0.01953129
,,,-0.000786079995,  0.01359379
,,,-0.000785999995,  0.01796879
,,,-0.000785919995,  0.02187504
,,,-0.000785839995,  0.02187504
,,,-0.000785759995,  0.01906254
,,,-0.000785679995,  0.02031254
,,,-0.000785599995,  0.01875004
,,,-0.000785519995,  0.01593754
,,,-0.000785439995,  0.02390629
,,,-0.000785359995,  0.01468754
,,,-0.000785279995,  0.02031254
,,,-0.000785199995,  0.02187504
,,,-0.000785119995,  0.01593754
,,,-0.000785039995,  0.01750004
,,,-0.000784959995,  0.01640629
,,,-0.000784879995,  0.01640629
,,,-0.000784799995,  0.01468754
,,,-0.000784719995,  0.01546879
,,,-0.000784639995,  0.02000004
,,,-0.000784559995,  0.01953129
,,,-0.000784479995,  0.02359379
,,,-0.000784399995,  0.01031254
,,,-0.000784319995,  0.01671879
,,,-0.000784239995,  0.01078129
,,,-0.000784159995,  0.01593754
,,,-0.000784079995,  0.02156254
,,,-0.000783999995,  0.02437504
,,,-0.000783919995,  0.02156254
,,,-0.000783839995,  0.01390629
,,,-0.000783759995,  0.01546879
,,,-0.000783679995,  0.02000004
,,,-0.000783599995,  0.01593754
,,,-0.000783519995,  0.02156254
,,,-0.000783439995,  0.01671879
,,,-0.000783359995,  0.01796879
,,,-0.000783279995,  0.02437504
,,,-0.000783199995,  0.02546879
,,,-0.000783119995,  0.02156254
,,,-0.000783039995,  0.01359379
,,,-0.000782959995,  0.01750004
,,,-0.000782879995,  0.01796879
,,,-0.000782799995,  0.02359379
,,,-0.000782719995,  0.02000004
,,,-0.000782639995,  0.02031254
,,,-0.000782559995,  0.02265629
,,,-0.000782479995,  0.01515629
,,,-0.000782399995,  0.02265629
,,,-0.000782319995,  0.01953129
,,,-0.000782239995,  0.02312504
,,,-0.000782159995,  0.01593754
,,,-0.000782079995,  0.01671879
,,,-0.000781999995,  0.02156254
,,,-0.000781919995,  0.01546879
,,,-0.000781839995,  0.02234379
,,,-0.000781759995,  0.01546879
,,,-0.000781679995,  0.02000004
,,,-0.000781599995,  0.02031254
,,,-0.000781519995,  0.02109379
,,,-0.000781439995,  0.01875004
,,,-0.000781359995,  0.01718754
,,,-0.000781279995,  0.01796879
,,,-0.000781199995,  0.02187504
,,,-0.000781119995,  0.02031254
,,,-0.000781039995,  0.01796879
,,,-0.000780959995,  0.02031254
,,,-0.000780879995,  0.01953129
,,,-0.000780799995,  0.01359379
,,,-0.000780719995,  0.01875004
,,,-0.000780639995,  0.01828129
,,,-0.000780559995,  0.01796879
,,,-0.000780479995,  0.01593754
,,,-0.000780399995,  0.01515629
,,,-0.000780319995,  0.02312504
,,,-0.000780239995,  0.01750004
,,,-0.000780159995,  0.01828129
,,,-0.000780079995,  0.01640629
,,,-0.000779999995,  0.02031254
,,,-0.000779919995,  0.01828129
,,,-0.000779839995,  0.01593754
,,,-0.000779759995,  0.01515629
,,,-0.000779679995,  0.01796879
,,,-0.000779599995,  0.01828129
,,,-0.000779519995,  0.01671879
,,,-0.000779439995,  0.01718754
,,,-0.000779359995,  0.02796879
,,,-0.000779279995,  0.02078129
,,,-0.000779199995,  0.01906254
,,,-0.000779119995,  0.01437504
,,,-0.000779039995,  0.02000004
,,,-0.000778959995,  0.02031254
,,,-0.000778879995,  0.01875004
,,,-0.000778799995,  0.01906254
,,,-0.000778719995,  0.01750004
,,,-0.000778639995,  0.02156254
,,,-0.000778559995,  0.01718754
,,,-0.000778479995,  0.01546879
,,,-0.000778399995,  0.01468754
,,,-0.000778319995,  0.02078129
,,,-0.000778239995,  0.02000004
,,,-0.000778159995,  0.01234379
,,,-0.000778079995,  0.02546879
,,,-0.000777999995,  0.01953129
,,,-0.000777919995,  0.01640629
,,,-0.000777839995,  0.01718754
,,,-0.000777759995,  0.02078129
,,,-0.000777679995,  0.01953129
,,,-0.000777599995,  0.01718754
,,,-0.000777519995,  0.02359379
,,,-0.000777439995,  0.01750004
,,,-0.000777359995,  0.01718754
,,,-0.000777279995,  0.01906254
,,,-0.000777199995,  0.01234379
,,,-0.000777119995,  0.01953129
,,,-0.000777039995,  0.01750004
,,,-0.000776959995,  0.01796879
,,,-0.000776879995,  0.01390629
,,,-0.000776799995,  0.02109379
,,,-0.000776719995,  0.01640629
,,,-0.000776639995,  0.01796879
,,,-0.000776559995,  0.01750004
,,,-0.000776479995,  0.02000004
,,,-0.000776399995,  0.02437504
,,,-0.000776319995,  0.02000004
,,,-0.000776239995,  0.01546879
,,,-0.000776159995,  0.01953129
,,,-0.000776079995,  0.01312504
,,,-0.000775999995,  0.01640629
,,,-0.000775919995,  0.02109379
,,,-0.000775839995,  0.02515629
,,,-0.000775759995,  0.01437504
,,,-0.000775679995,  0.02031254
,,,-0.000775599995,  0.02546879
,,,-0.000775519995,  0.02109379
,,,-0.000775439995,  0.02187504
,,,-0.000775359995,  0.01828129
,,,-0.000775279995,  0.02078129
,,,-0.000775199995,  0.02000004
,,,-0.000775119995,  0.02312504
,,,-0.000775039995,  0.02109379
,,,-0.000774959995,  0.02078129
,,,-0.000774879995,  0.02468754
,,,-0.000774799995,  0.02187504
,,,-0.000774719995,  0.01828129
,,,-0.000774639995,  0.01906254
,,,-0.000774559995,  0.01796879
,,,-0.000774479995,  0.02031254
,,,-0.000774399995,  0.01796879
,,,-0.000774319995,  0.01515629
,,,-0.000774239995,  0.02546879
,,,-0.000774159995,  0.02312504
,,,-0.000774079995,  0.01828129
,,,-0.000773999995,  0.01828129
,,,-0.000773919995,  0.01906254
,,,-0.000773839995,  0.02156254
,,,-0.000773759995,  0.01718754
,,,-0.000773679995,  0.02078129
,,,-0.000773599995,  0.01875004
,,,-0.000773519995,  0.02156254
,,,-0.000773439995,  0.01796879
,,,-0.000773359995,  0.02031254
,,,-0.000773279995,  0.01796879
,,,-0.000773199995,  0.01875004
,,,-0.000773119995,  0.01109379
,,,-0.000773039995,  0.02187504
,,,-0.000772959995,  0.01515629
,,,-0.000772879995,  0.02078129
,,,-0.000772799995,  0.02437504
,,,-0.000772719995, 0.008281295
,,,-0.000772639995,  0.02031254
,,,-0.000772559995,  0.01593754
,,,-0.000772479995,  0.01265629
,,,-0.000772399995,  0.01875004
,,,-0.000772319995,  0.01796879
,,,-0.000772239995,  0.01390629
,,,-0.000772159995,  0.01640629
,,,-0.000772079995,  0.01828129
,,,-0.000771999995,  0.01359379
,,,-0.000771919995,  0.01234379
,,,-0.000771839995,  0.01750004
,,,-0.000771759995,  0.01875004
,,,-0.000771679995,  0.01671879
,,,-0.000771599995,  0.01265629
,,,-0.000771519995,  0.01796879
,,,-0.000771439995,  0.01875004
,,,-0.000771359995,  0.02640629
,,,-0.000771279995,  0.02031254
,,,-0.000771199995,  0.02031254
,,,-0.000771119995,  0.02390629
,,,-0.000771039995,  0.01718754
,,,-0.000770959995,  0.01390629
,,,-0.000770879995,  0.01953129
,,,-0.000770799995,  0.02640629
,,,-0.000770719995,  0.02000004
,,,-0.000770639995,  0.02265629
,,,-0.000770559995,  0.02000004
,,,-0.000770479995,  0.02234379
,,,-0.000770399995,  0.01750004
,,,-0.000770319995,  0.02000004
,,,-0.000770239995,  0.02265629
,,,-0.000770159995,  0.02312504
,,,-0.000770079995,  0.01593754
,,,-0.000769999995,  0.02437504
,,,-0.000769919995,  0.01953129
,,,-0.000769839995,  0.01718754
,,,-0.000769759995,  0.02031254
,,,-0.000769679995,  0.01906254
,,,-0.000769599995,  0.02234379
,,,-0.000769519995,  0.01437504
,,,-0.000769439995,  0.02109379
,,,-0.000769359995,  0.01718754
,,,-0.000769279995,  0.01640629
,,,-0.000769199995,  0.01875004
,,,-0.000769119995,  0.01875004
,,,-0.000769039995,  0.02078129
,,,-0.000768959995,  0.02000004
,,,-0.000768879995,  0.01640629
,,,-0.000768799995,  0.01953129
,,,-0.000768719995,  0.01593754
,,,-0.000768639995,  0.01796879
,,,-0.000768559995,  0.01796879
,,,-0.000768479995,  0.02265629
,,,-0.000768399995,  0.02109379
,,,-0.000768319995,  0.01640629
,,,-0.000768239995,  0.01953129
,,,-0.000768159995,  0.01875004
,,,-0.000768079995,  0.02234379
,,,-0.000767999995,  0.01953129
,,,-0.000767919995,  0.02156254
,,,-0.000767839995,  0.01906254
,,,-0.000767759995,  0.02078129
,,,-0.000767679995,  0.02000004
,,,-0.000767599995,  0.01750004
,,,-0.000767519995,  0.02000004
,,,-0.000767439995,  0.02156254
,,,-0.000767359995,  0.02156254
,,,-0.000767279995,  0.01593754
,,,-0.000767199995,  0.01875004
,,,-0.000767119995,  0.01718754
,,,-0.000767039995,  0.01718754
,,,-0.000766959995,  0.01312504
,,,-0.000766879995,  0.02031254
,,,-0.000766799995,  0.01718754
,,,-0.000766719995,  0.01437504
,,,-0.000766639995,  0.01906254
,,,-0.000766559995,  0.01828129
,,,-0.000766479995,  0.01718754
,,,-0.000766399995,  0.01671879
,,,-0.000766319995,  0.01593754
,,,-0.000766239995,  0.02265629
,,,-0.000766159995,  0.01718754
,,,-0.000766079995,  0.01468754
,,,-0.000765999995,  0.02000004
,,,-0.000765919995,  0.02187504
,,,-0.000765839995,  0.02156254
,,,-0.000765759995,  0.02187504
,,,-0.000765679995,  0.01718754
,,,-0.000765599995,  0.01671879
,,,-0.000765519995,  0.01796879
,,,-0.000765439995,  0.01718754
,,,-0.000765359995,  0.01546879
,,,-0.000765279995,  0.01640629
,,,-0.000765199995,  0.02031254
,,,-0.000765119995,  0.01875004
,,,-0.000765039995,  0.01593754
,,,-0.000764959995,  0.01906254
,,,-0.000764879995,  0.02078129
,,,-0.000764799995,  0.01828129
,,,-0.000764719995,  0.01671879
,,,-0.000764639995,  0.01546879
,,,-0.000764559995,  0.02515629
,,,-0.000764479995,  0.01750004
,,,-0.000764399995,  0.01640629
,,,-0.000764319995,  0.02265629
,,,-0.000764239995,  0.01546879
,,,-0.000764159995,  0.01718754
,,,-0.000764079995,  0.01359379
,,,-0.000763999995,  0.02000004
,,,-0.000763919995,  0.01750004
,,,-0.000763839995,  0.01640629
,,,-0.000763759995,  0.02187504
,,,-0.000763679995,  0.02031254
,,,-0.000763599995,  0.01671879
,,,-0.000763519995,  0.02359379
,,,-0.000763439995,  0.01906254
,,,-0.000763359995,  0.01875004
,,,-0.000763279995,  0.01640629
,,,-0.000763199995,  0.01593754
,,,-0.000763119995,  0.01796879
,,,-0.000763039995,  0.01031254
,,,-0.000762959995,  0.01906254
,,,-0.000762879995,  0.01953129
,,,-0.000762799995,  0.01546879
,,,-0.000762719995,  0.01546879
,,,-0.000762639995,  0.02031254
,,,-0.000762559995,  0.01875004
,,,-0.000762479995,  0.01593754
,,,-0.000762399995,  0.01906254
,,,-0.000762319995,  0.01640629
,,,-0.000762239995,  0.01875004
,,,-0.000762159995,  0.01515629
,,,-0.000762079995,  0.01875004
,,,-0.000761999995,  0.01718754
,,,-0.000761919995,  0.01515629
,,,-0.000761839995,  0.02000004
,,,-0.000761759995,  0.02187504
,,,-0.000761679995,  0.01312504
,,,-0.000761599995,  0.01796879
,,,-0.000761519995,  0.01671879
,,,-0.000761439995,  0.02359379
,,,-0.000761359995,  0.01796879
,,,-0.000761279995,  0.02312504
,,,-0.000761199995,  0.01718754
,,,-0.000761119995,  0.01265629
,,,-0.000761039995,  0.01390629
,,,-0.000760959995,  0.01640629
,,,-0.000760879995,  0.01953129
,,,-0.000760799995,  0.01312504
,,,-0.000760719995,  0.01875004
,,,-0.000760639995,  0.01671879
,,,-0.000760559995,  0.02031254
,,,-0.000760479995,  0.01718754
,,,-0.000760399995,  0.01359379
,,,-0.000760319995,  0.01515629
,,,-0.000760239995,  0.01640629
,,,-0.000760159995,  0.01953129
,,,-0.000760079995,  0.02546879
,,,-0.000759999995,  0.01671879
,,,-0.000759919995,  0.01359379
,,,-0.000759839995,  0.01875004
,,,-0.000759759995,  0.01593754
,,,-0.000759679995,  0.02031254
,,,-0.000759599995,  0.01359379
,,,-0.000759519995, 0.007968795
,,,-0.000759439995,  0.01828129
,,,-0.000759359995,  0.01546879
,,,-0.000759279995,  0.01906254
,,,-0.000759199995,  0.02187504
,,,-0.000759119995,  0.01718754
,,,-0.000759039995,  0.02234379
,,,-0.000758959995,  0.01750004
,,,-0.000758879995,  0.01640629
,,,-0.000758799995,  0.01906254
,,,-0.000758719995,  0.01546879
,,,-0.000758639995,  0.02718754
,,,-0.000758559995,  0.01875004
,,,-0.000758479995,  0.02390629
,,,-0.000758399995,  0.02000004
,,,-0.000758319995,  0.01468754
,,,-0.000758239995,  0.01390629
,,,-0.000758159995,  0.01718754
,,,-0.000758079995,  0.01546879
,,,-0.000757999995,  0.02546879
,,,-0.000757919995,  0.01718754
,,,-0.000757839995,  0.02468754
,,,-0.000757759995,  0.02187504
,,,-0.000757679995,  0.01750004
,,,-0.000757599995,  0.01953129
,,,-0.000757519995,  0.01312504
,,,-0.000757439995,  0.01953129
,,,-0.000757359995,  0.01265629
,,,-0.000757279995,  0.01671879
,,,-0.000757199995,  0.01953129
,,,-0.000757119995,  0.01640629
,,,-0.000757039995,  0.02546879
,,,-0.000756959995,  0.02187504
,,,-0.000756879995,  0.01671879
,,,-0.000756799995,  0.01828129
,,,-0.000756719995,  0.01906254
,,,-0.000756639995,  0.01468754
,,,-0.000756559995,  0.01515629
,,,-0.000756479995,  0.02187504
,,,-0.000756399995,  0.02078129
,,,-0.000756319995,  0.01828129
,,,-0.000756239995,  0.01828129
,,,-0.000756159995,  0.02234379
,,,-0.000756079995,  0.01828129
,,,-0.000755999995,  0.01390629
,,,-0.000755919995,  0.01875004
,,,-0.000755839995,  0.02109379
,,,-0.000755759995,  0.01640629
,,,-0.000755679995,  0.01796879
,,,-0.000755599995,  0.02156254
,,,-0.000755519995,  0.01515629
,,,-0.000755439995,  0.01546879
,,,-0.000755359995,  0.01640629
,,,-0.000755279995,  0.01640629
,,,-0.000755199995,  0.01359379
,,,-0.000755119995,  0.01750004
,,,-0.000755039995,  0.01796879
,,,-0.000754959995,  0.01468754
,,,-0.000754879995,  0.01156254
,,,-0.000754799995,  0.01718754
,,,-0.000754719995,  0.01546879
,,,-0.000754639995,  0.02312504
,,,-0.000754559995,  0.01468754
,,,-0.000754479995,  0.02593754
,,,-0.000754399995,  0.01875004
,,,-0.000754319995,  0.01906254
,,,-0.000754239995,  0.02187504
,,,-0.000754159995,  0.02187504
,,,-0.000754079995,  0.02437504
,,,-0.000753999995,  0.01390629
,,,-0.000753919995,  0.02359379
,,,-0.000753839995,  0.02265629
,,,-0.000753759995,  0.01671879
,,,-0.000753679995,  0.02515629
,,,-0.000753599995,  0.02437504
,,,-0.000753519995,  0.02000004
,,,-0.000753439995,  0.01953129
,,,-0.000753359995,  0.01953129
,,,-0.000753279995,  0.01953129
,,,-0.000753199995,  0.01671879
,,,-0.000753119995,  0.01187504
,,,-0.000753039995,  0.02187504
,,,-0.000752959995,  0.01640629
,,,-0.000752879995,  0.01796879
,,,-0.000752799995,  0.01593754
,,,-0.000752719995,  0.01953129
,,,-0.000752639995,  0.01640629
,,,-0.000752559995,  0.02031254
,,,-0.000752479995,  0.02187504
,,,-0.000752399995,  0.01875004
,,,-0.000752319995,  0.01187504
,,,-0.000752239995,  0.02156254
,,,-0.000752159995,  0.02234379
,,,-0.000752079995,  0.02312504
,,,-0.000751999995,  0.02156254
,,,-0.000751919995,  0.01828129
,,,-0.000751839995,  0.01390629
,,,-0.000751759995,  0.01953129
,,,-0.000751679995,  0.01906254
,,,-0.000751599995,  0.01875004
,,,-0.000751519995,  0.01718754
,,,-0.000751439995,  0.01875004
,,,-0.000751359995,  0.01718754
,,,-0.000751279995,  0.01312504
,,,-0.000751199995,  0.01546879
,,,-0.000751119995,  0.01671879
,,,-0.000751039995,  0.01750004
,,,-0.000750959995,  0.02031254
,,,-0.000750879995,  0.02031254
,,,-0.000750799995,  0.02000004
,,,-0.000750719995,  0.02156254
,,,-0.000750639995,  0.01468754
,,,-0.000750559995,  0.01359379
,,,-0.000750479995,  0.02265629
,,,-0.000750399995,  0.01437504
,,,-0.000750319995,  0.01718754
,,,-0.000750239995,  0.01312504
,,,-0.000750159995,  0.01953129
,,,-0.000750079995,  0.02312504
,,,-0.000749999995,  0.02078129
,,,-0.000749919995,  0.02078129
,,,-0.000749839995,  0.02109379
,,,-0.000749759995,  0.01640629
,,,-0.000749679995,  0.01515629
,,,-0.000749599995,  0.01593754
,,,-0.000749519995,  0.01718754
,,,-0.000749439995,  0.01312504
,,,-0.000749359995,  0.02078129
,,,-0.000749279995,  0.01750004
,,,-0.000749199995,  0.02000004
,,,-0.000749119995,  0.02031254
,,,-0.000749039995,  0.01468754
,,,-0.000748959995,  0.01953129
,,,-0.000748879995,  0.02390629
,,,-0.000748799995,  0.01671879
,,,-0.000748719995,  0.01875004
,,,-0.000748639995,  0.01906254
,,,-0.000748559995,  0.01906254
,,,-0.000748479995,  0.01906254
,,,-0.000748399995,  0.01750004
,,,-0.000748319995,  0.01000004
,,,-0.000748239995,  0.02031254
,,,-0.000748159995,  0.02000004
,,,-0.000748079995,  0.01718754
,,,-0.000747999995,  0.02078129
,,,-0.000747919995,  0.02031254
,,,-0.000747839995,  0.01468754
,,,-0.000747759995,  0.01546879
,,,-0.000747679995,  0.01875004
,,,-0.000747599995,  0.02265629
,,,-0.000747519995,  0.02078129
,,,-0.000747439995,  0.01718754
,,,-0.000747359995,  0.02000004
,,,-0.000747279995,  0.01671879
,,,-0.000747199995,  0.01468754
,,,-0.000747119995,  0.02156254
,,,-0.000747039995,  0.02265629
,,,-0.000746959995,  0.02234379
,,,-0.000746879995,  0.01671879
,,,-0.000746799995,  0.01718754
,,,-0.000746719995,  0.01718754
,,,-0.000746639995,  0.02000004
,,,-0.000746559995,  0.01796879
,,,-0.000746479995,  0.02000004
,,,-0.000746399995,  0.02000004
,,,-0.000746319995,  0.02265629
,,,-0.000746239995,  0.01828129
,,,-0.000746159995,  0.01640629
,,,-0.000746079995,  0.01671879
,,,-0.000745999995,  0.01515629
,,,-0.000745919995,  0.01640629
,,,-0.000745839995,  0.01546879
,,,-0.000745759995,  0.01593754
,,,-0.000745679995,  0.02234379
,,,-0.000745599995,  0.01390629
,,,-0.000745519995,  0.01390629
,,,-0.000745439995,  0.01750004
,,,-0.000745359995,  0.01828129
,,,-0.000745279995,  0.01828129
,,,-0.000745199995,  0.01671879
,,,-0.000745119995,  0.01828129
,,,-0.000745039995,  0.01953129
,,,-0.000744959995,  0.01671879
,,,-0.000744879995,  0.02031254
,,,-0.000744799995,  0.02156254
,,,-0.000744719995,  0.02078129
,,,-0.000744639995,  0.02031254
,,,-0.000744559995,  0.01640629
,,,-0.000744479995,  0.01875004
,,,-0.000744399995,  0.02109379
,,,-0.000744319995,  0.01187504
,,,-0.000744239995,  0.02468754
,,,-0.000744159995,  0.02000004
,,,-0.000744079995,  0.01265629
,,,-0.000743999995,  0.02187504
,,,-0.000743919995,  0.01187504
,,,-0.000743839995,  0.01468754
,,,-0.000743759995,  0.01796879
,,,-0.000743679995,  0.01953129
,,,-0.000743599995,  0.01796879
,,,-0.000743519995,  0.02156254
,,,-0.000743439995,  0.01640629
,,,-0.000743359995,  0.02546879
,,,-0.000743279995,  0.02000004
,,,-0.000743199995,  0.02234379
,,,-0.000743119995,  0.02031254
,,,-0.000743039995,  0.01546879
,,,-0.000742959995,  0.01640629
,,,-0.000742879995,  0.02000004
,,,-0.000742799995,  0.01828129
,,,-0.000742719995,  0.01750004
,,,-0.000742639995,  0.01390629
,,,-0.000742559995,  0.01750004
